<svg id="content" xmlns="http://www.w3.org/2000/svg" xmlns:xlink="http://www.w3.org/1999/xlink" viewBox="0 0 1236.77 176">
  <defs>
    <style>
      .cls-1 {
        fill: none;
      }

      .cls-2 {
        clip-path: url(#clip-path);
      }

      .cls-3 {
        fill: #db4536;
      }

      .cls-4 {
        fill: url(#linear-gradient);
      }

      .cls-5 {
        fill: #0b9d58;
      }

      .cls-6 {
        fill: url(#linear-gradient-2);
      }

      .cls-7 {
        fill: #ffce40;
      }

      .cls-8 {
        fill: url(#linear-gradient-3);
      }

      .cls-9 {
        fill: #f2f1f1;
      }

      .cls-10 {
        fill: #547dbf;
      }

      .cls-11 {
        opacity: 0.54;
      }
    </style>
    <clipPath id="clip-path" transform="translate(-128 -136)">
      <circle class="cls-1" cx="216" cy="224" r="88"/>
    </clipPath>
    <linearGradient id="linear-gradient" x1="21.34" y1="67.02" x2="73.84" y2="36.35" gradientUnits="userSpaceOnUse">
      <stop offset="0" stop-color="#a52822" stop-opacity="0.6"/>
      <stop offset="0.09" stop-color="#a52822" stop-opacity="0.47"/>
      <stop offset="0.25" stop-color="#a52822" stop-opacity="0.26"/>
      <stop offset="0.4" stop-color="#a52822" stop-opacity="0.12"/>
      <stop offset="0.54" stop-color="#a52822" stop-opacity="0.03"/>
      <stop offset="0.66" stop-color="#a52822" stop-opacity="0"/>
    </linearGradient>
    <linearGradient id="linear-gradient-2" x1="102.87" y1="156.5" x2="44.54" y2="122.33" gradientUnits="userSpaceOnUse">
      <stop offset="0" stop-color="#0b562b" stop-opacity="0.4"/>
      <stop offset="0.09" stop-color="#0b562b" stop-opacity="0.23"/>
      <stop offset="0.22" stop-color="#0b562b" stop-opacity="0.06"/>
      <stop offset="0.33" stop-color="#0b562b" stop-opacity="0"/>
    </linearGradient>
    <linearGradient id="linear-gradient-3" x1="113.86" y1="41.8" x2="128.55" y2="106.13" gradientUnits="userSpaceOnUse">
      <stop offset="0" stop-color="#e86324" stop-opacity="0.3"/>
      <stop offset="0.16" stop-color="#e86324" stop-opacity="0.19"/>
      <stop offset="0.34" stop-color="#e86324" stop-opacity="0.08"/>
      <stop offset="0.52" stop-color="#e86324" stop-opacity="0.02"/>
      <stop offset="0.66" stop-color="#e86324" stop-opacity="0"/>
    </linearGradient>
  </defs>
  <g>
    <g class="cls-2">
      <g>
        <polygon class="cls-3" points="13.97 0 13.97 108 53.36 108 88 48 176 48 176 0 13.97 0"/>
        <polygon class="cls-4" points="13.97 0 13.97 108 53.36 108 88 48 176 48 176 0 13.97 0"/>
      </g>
      <g>
        <polygon class="cls-5" points="0 176 83.77 176 122.65 137.12 122.65 108 53.36 108 0 16.48 0 176"/>
        <polygon class="cls-6" points="0 176 83.77 176 122.65 137.12 122.65 108 53.36 108 0 16.48 0 176"/>
      </g>
      <g>
        <polygon class="cls-7" points="88 48 122.65 108 83.77 176 176 176 176 48 88 48"/>
        <polygon class="cls-8" points="88 48 122.65 108 83.77 176 176 176 176 48 88 48"/>
      </g>
      <g>
        <circle class="cls-9" cx="88" cy="88" r="40"/>
        <circle class="cls-10" cx="88" cy="88" r="32"/>
      </g>
    </g>
    <g class="cls-11">
      <g>
        <path d="M352.58,226.64c0-19.07,13.44-33.41,32.26-33.41,15,0,23.68,8.83,27.52,18.05l-10.75,4.48c-3.07-7.43-8.83-11.78-17.54-11.78-10,0-19.71,9.09-19.71,22.66s9.73,22.66,19.71,22.66c8.71,0,15.11-4.48,18.18-11.78l10.5,4.48c-3.84,9.22-12.93,18.05-27.91,18.05C366,260.05,352.58,245.58,352.58,226.64Z" transform="translate(-128 -136)"/>
        <path d="M433.48,195.28,433,204h.51c3.33-5.76,11.26-10.75,19.84-10.75,16,0,23.94,10.88,23.94,26.37V258H465.48V221.39C465.48,208.33,459,204,450,204c-10.24,0-16.51,9.73-16.51,19.33V258H421.7V166.35h11.78Z" transform="translate(-128 -136)"/>
        <path d="M489.8,258V195.28h11.26v10.24h.51c2.56-7.17,11.65-11.78,18.18-11.78a21.33,21.33,0,0,1,8.83,1.54l-4.48,11a17.55,17.55,0,0,0-6.27-.9c-8.06,0-16.26,6.78-16.26,18.3V258Z" transform="translate(-128 -136)"/>
        <path d="M594,226.64c0,19.07-13.44,33.41-32.26,33.41s-32.25-14.34-32.25-33.41,13.44-33.41,32.25-33.41S594,207.57,594,226.64Zm-11.77,0c0-14.34-10-22.66-20.49-22.66s-20.48,8.32-20.48,22.66,10,22.66,20.48,22.66S582.22,241,582.22,226.64Z" transform="translate(-128 -136)"/>
        <path d="M603.46,195.28h11.26V204h.52c3.58-6,11.9-10.75,19.33-10.75,10.11,0,16.64,4.61,19.84,12a25.51,25.51,0,0,1,21.89-12c15.36,0,22.4,10.88,22.4,26.37V258H686.92V221.39c0-13.06-5-17.41-13.95-17.41-9.6,0-16,9.73-16,19.33V258H645.19V221.39c0-13.06-5-17.41-14-17.41-9.6,0-16,9.73-16,19.33V258H603.46Z" transform="translate(-128 -136)"/>
        <path d="M707.65,226.64c0-17.79,12.29-33.41,30.72-33.41,18.69,0,30.72,13.18,30.72,33.41,0,.89-.12,2.17-.12,2.17H719.43c.64,13.32,10.24,20.49,20,20.49,6.91,0,13.82-2.82,17.15-10.76l10.5,4.36c-3.72,9-12.93,17.15-27.4,17.15C720.45,260.05,707.65,245.58,707.65,226.64ZM738.12,204c-8.71,0-15.62,5.89-17.92,15.11h36.35C756.17,213.58,751.56,204,738.12,204Z" transform="translate(-128 -136)"/>
      </g>
      <g>
        <path d="M838.88,260q-14.1,0-22.93-9.4t-8.83-23.74a34.25,34.25,0,0,1,8.58-23.37,27.81,27.81,0,0,1,21.9-9.78q13.85,0,22.17,9t8.31,24.14L868,229H818.81q.51,9.41,6.29,14.86a19.06,19.06,0,0,0,13.52,5.46q12.57,0,17-10.66L866.05,243a27.83,27.83,0,0,1-10,12.13Q849,260,838.88,260Zm16.76-40.64q-.39-5.32-4.89-10.16t-13.4-4.82a16.76,16.76,0,0,0-11.24,4.06,20.82,20.82,0,0,0-6.54,10.92Z" transform="translate(-128 -136)"/>
        <path d="M889.93,195.77v8.64h.51a20.65,20.65,0,0,1,8-7.56,23.25,23.25,0,0,1,11.68-3.11q11.55,0,17.65,7.11t6.1,19.05V258H922.19V221.68q0-17.28-15.37-17.27A14.38,14.38,0,0,0,895,210.18a21,21,0,0,0-4.57,13.4V258H878.75V195.77Z" transform="translate(-128 -136)"/>
        <path d="M971.33,259q-9.78,0-14.92-5.21t-5.14-14.73V206.44H940.35V195.77h10.92V176.72H963v19.05h15.24v10.67H963v31.75q0,10.16,8.38,10.16a12.47,12.47,0,0,0,5.34-1l4.06,10A23.65,23.65,0,0,1,971.33,259Z" transform="translate(-128 -136)"/>
        <path d="M1016.93,260q-14.1,0-22.93-9.4t-8.82-23.74a34.29,34.29,0,0,1,8.57-23.37,27.84,27.84,0,0,1,21.91-9.78q13.85,0,22.16,9t8.32,24.14L1046,229H996.86q.51,9.41,6.29,14.86a19.06,19.06,0,0,0,13.52,5.46q12.58,0,17-10.66l10.42,4.31a27.93,27.93,0,0,1-10,12.13Q1027.1,260,1016.93,260Zm16.76-40.64q-.37-5.32-4.89-10.16t-13.4-4.82a16.78,16.78,0,0,0-11.24,4.06,20.82,20.82,0,0,0-6.54,10.92Z" transform="translate(-128 -136)"/>
        <path d="M1068.49,258h-11.68V195.77H1068v10.16h.51a15.9,15.9,0,0,1,7.3-8.38,20.93,20.93,0,0,1,10.73-3.3,22.23,22.23,0,0,1,8.77,1.52l-4.45,10.92a17.67,17.67,0,0,0-6.22-.89,15.28,15.28,0,0,0-11.24,5q-4.89,5-4.89,13.14Z" transform="translate(-128 -136)"/>
        <path d="M1135.29,260a26.33,26.33,0,0,1-12.76-3,21.52,21.52,0,0,1-8.45-7.62h-.51l.51,8.64v27.43H1102.4V195.77h11.17v8.64h.51a21.52,21.52,0,0,1,8.45-7.62,26.33,26.33,0,0,1,12.76-3q12.06,0,20.83,9.52t8.76,23.63q0,14.09-8.76,23.62T1135.29,260Zm-1.9-10.67a18.6,18.6,0,0,0,14-6.16q5.84-6.15,5.84-16.31t-5.84-16.32a19.07,19.07,0,0,0-28-.07q-5.77,6.1-5.78,16.39t5.78,16.38A18.62,18.62,0,0,0,1133.39,249.36Z" transform="translate(-128 -136)"/>
        <path d="M1186.6,258h-11.69V195.77h11.18v10.16h.51a15.9,15.9,0,0,1,7.3-8.38,20.9,20.9,0,0,1,10.73-3.3,22.27,22.27,0,0,1,8.77,1.52L1209,206.69a17.67,17.67,0,0,0-6.22-.89,15.28,15.28,0,0,0-11.24,5q-4.89,5-4.89,13.14Z" transform="translate(-128 -136)"/>
        <path d="M1233.71,180.15a8.26,8.26,0,1,1,2.42-5.84A7.94,7.94,0,0,1,1233.71,180.15Zm0,77.85H1222V195.77h11.68Z" transform="translate(-128 -136)"/>
        <path d="M1272.07,260q-10.42,0-17.21-5.08a30,30,0,0,1-10-12.7l10.41-4.32q5,11.69,16.89,11.69a15.51,15.51,0,0,0,9-2.41,7.42,7.42,0,0,0,3.49-6.36q0-6.09-8.51-8.25l-12.57-3a29.86,29.86,0,0,1-11.31-5.78,13.92,13.92,0,0,1-5.33-11.49q0-8.25,7.3-13.4a29.33,29.33,0,0,1,17.34-5.14,29,29,0,0,1,14.73,3.74,21.11,21.11,0,0,1,9.27,10.74l-10.16,4.19q-3.42-8.26-14.22-8.26a16.6,16.6,0,0,0-8.77,2.16,6.58,6.58,0,0,0-3.55,5.84q0,5.34,8.25,7.24l12.32,2.92q8.76,2,13,7a16.86,16.86,0,0,1,4.19,11.17,17.31,17.31,0,0,1-6.86,14Q1282.87,260,1272.07,260Z" transform="translate(-128 -136)"/>
        <path d="M1335.56,260q-14.08,0-22.92-9.4t-8.83-23.74a34.25,34.25,0,0,1,8.58-23.37,27.81,27.81,0,0,1,21.9-9.78q13.85,0,22.16,9t8.32,24.14l-.12,2.15H1315.5q.49,9.41,6.28,14.86a19.08,19.08,0,0,0,13.53,5.46q12.57,0,17-10.66l10.41,4.31a27.9,27.9,0,0,1-10,12.13Q1345.72,260,1335.56,260Zm16.77-40.64q-.39-5.32-4.89-10.16t-13.4-4.82a16.75,16.75,0,0,0-11.24,4.06,20.7,20.7,0,0,0-6.54,10.92Z" transform="translate(-128 -136)"/>
      </g>
    </g>
  </g>
</svg>
